Library\Bee\artifacts\mvdfrm\Unity.VisualScripting.Core.ref.dll_3AC08951D7FF5D33.mvfrm
Library\Bee\artifacts\mvdfrm\Unity.VisualScripting.Flow.ref.dll_81D169A85A08D1E2.mvfrm
Library\Bee\artifacts\mvdfrm\UnityEngine.UI.ref.dll_6C1073D56147DE5F.mvfrm
Library\Bee\artifacts\mvdfrm\Unity.FontABTool.dll_D3745EB4DA4B6B64.mvfrm
Library\Bee\artifacts\mvdfrm\UnityEngine.AccessibilityModule.dll_C1C501D854FDCB7A.mvfrm
Library\Bee\artifacts\mvdfrm\UnityEngine.AIModule.dll_7D93A847F70D6BE0.mvfrm
Library\Bee\artifacts\mvdfrm\UnityEngine.AndroidJNIModule.dll_EB7BCF75B9C2219E.mvfrm
Library\Bee\artifacts\mvdfrm\UnityEngine.AnimationModule.dll_9FA6A8E9E9343BA0.mvfrm
Library\Bee\artifacts\mvdfrm\UnityEngine.AssetBundleModule.dll_8560FAB3D0D406CE.mvfrm
Library\Bee\artifacts\mvdfrm\UnityEngine.AudioModule.dll_6D21562ACB45B492.mvfrm
Library\Bee\artifacts\mvdfrm\UnityEngine.ClothModule.dll_D409B325A5629376.mvfrm
Library\Bee\artifacts\mvdfrm\UnityEngine.CoreModule.dll_036F26871EF57237.mvfrm
Library\Bee\artifacts\mvdfrm\UnityEngine.CrashReportingModule.dll_CF37C9B336840E2F.mvfrm
Library\Bee\artifacts\mvdfrm\UnityEngine.DirectorModule.dll_EF9BDE1871F11614.mvfrm
Library\Bee\artifacts\mvdfrm\UnityEngine.dll_56095470D9C901AE.mvfrm
Library\Bee\artifacts\mvdfrm\UnityEngine.DSPGraphModule.dll_F4ED3F81E451E735.mvfrm
Library\Bee\artifacts\mvdfrm\UnityEngine.GameCenterModule.dll_15C919908003128F.mvfrm
Library\Bee\artifacts\mvdfrm\UnityEngine.GIModule.dll_15CFF15592BC53FA.mvfrm
Library\Bee\artifacts\mvdfrm\UnityEngine.GridModule.dll_E0E04275374A082E.mvfrm
Library\Bee\artifacts\mvdfrm\UnityEngine.HotReloadModule.dll_20EF66EFC4675722.mvfrm
Library\Bee\artifacts\mvdfrm\UnityEngine.ImageConversionModule.dll_B612F4A302C88DED.mvfrm
Library\Bee\artifacts\mvdfrm\UnityEngine.IMGUIModule.dll_A580F59191774873.mvfrm
Library\Bee\artifacts\mvdfrm\UnityEngine.InputLegacyModule.dll_16A615D268C5BCBF.mvfrm
Library\Bee\artifacts\mvdfrm\UnityEngine.InputModule.dll_D3971DDB417DD936.mvfrm
Library\Bee\artifacts\mvdfrm\UnityEngine.JSONSerializeModule.dll_21DC8B1454392C04.mvfrm
Library\Bee\artifacts\mvdfrm\UnityEngine.LocalizationModule.dll_B56433792D100181.mvfrm
Library\Bee\artifacts\mvdfrm\UnityEngine.ParticleSystemModule.dll_224A12FFA49599BD.mvfrm
Library\Bee\artifacts\mvdfrm\UnityEngine.PerformanceReportingModule.dll_F84BEBB1D30EFDF6.mvfrm
Library\Bee\artifacts\mvdfrm\UnityEngine.Physics2DModule.dll_EC4C98DA8A313335.mvfrm
Library\Bee\artifacts\mvdfrm\UnityEngine.PhysicsModule.dll_ED15D91D681385A3.mvfrm
Library\Bee\artifacts\mvdfrm\UnityEngine.ProfilerModule.dll_21E2174F0B4A9D21.mvfrm
Library\Bee\artifacts\mvdfrm\UnityEngine.RuntimeInitializeOnLoadManagerInitializerModule.dll_44851C0750888DFE.mvfrm
Library\Bee\artifacts\mvdfrm\UnityEngine.ScreenCaptureModule.dll_3BC4389968A55866.mvfrm
Library\Bee\artifacts\mvdfrm\UnityEngine.SharedInternalsModule.dll_3A24337879F6893D.mvfrm
Library\Bee\artifacts\mvdfrm\UnityEngine.SpriteMaskModule.dll_FEF58C20A172A809.mvfrm
Library\Bee\artifacts\mvdfrm\UnityEngine.SpriteShapeModule.dll_9EC2280E86763ED8.mvfrm
Library\Bee\artifacts\mvdfrm\UnityEngine.StreamingModule.dll_543B963A38BBF2DE.mvfrm
Library\Bee\artifacts\mvdfrm\UnityEngine.SubstanceModule.dll_30E6AA83840EF0EC.mvfrm
Library\Bee\artifacts\mvdfrm\UnityEngine.SubsystemsModule.dll_69A2F2826FBA901C.mvfrm
Library\Bee\artifacts\mvdfrm\UnityEngine.TerrainModule.dll_075C548C3DD1CE91.mvfrm
Library\Bee\artifacts\mvdfrm\UnityEngine.TerrainPhysicsModule.dll_22C4BBD2BDD8944A.mvfrm
Library\Bee\artifacts\mvdfrm\UnityEngine.TextCoreFontEngineModule.dll_04A2C520B0B439D5.mvfrm
Library\Bee\artifacts\mvdfrm\UnityEngine.TextCoreTextEngineModule.dll_4C8AFB924037F2F3.mvfrm
Library\Bee\artifacts\mvdfrm\UnityEngine.TextRenderingModule.dll_6503AAA41FDCD85B.mvfrm
Library\Bee\artifacts\mvdfrm\UnityEngine.TilemapModule.dll_A658BC0D558EAF9A.mvfrm
Library\Bee\artifacts\mvdfrm\UnityEngine.TLSModule.dll_5B4917DA404B35B7.mvfrm
Library\Bee\artifacts\mvdfrm\UnityEngine.UIElementsModule.dll_6DE153EA72E6CC13.mvfrm
Library\Bee\artifacts\mvdfrm\UnityEngine.UIElementsNativeModule.dll_FA15B1B183220D8A.mvfrm
Library\Bee\artifacts\mvdfrm\UnityEngine.UIModule.dll_790746755354718C.mvfrm
Library\Bee\artifacts\mvdfrm\UnityEngine.UIWidgetsModule.dll_F83B0EB639DDA4A7.mvfrm
Library\Bee\artifacts\mvdfrm\UnityEngine.UmbraModule.dll_E7F60243586C6005.mvfrm
Library\Bee\artifacts\mvdfrm\UnityEngine.UNETModule.dll_96156E706C0467B0.mvfrm
Library\Bee\artifacts\mvdfrm\UnityEngine.UnityAnalyticsCommonModule.dll_938AA8F5ECF79C54.mvfrm
Library\Bee\artifacts\mvdfrm\UnityEngine.UnityAnalyticsModule.dll_41E983C950BCEBB9.mvfrm
Library\Bee\artifacts\mvdfrm\UnityEngine.UnityConnectModule.dll_E4DA781FDE943C6D.mvfrm
Library\Bee\artifacts\mvdfrm\UnityEngine.UnityCurlModule.dll_D2C34A1B59482D8D.mvfrm
Library\Bee\artifacts\mvdfrm\UnityEngine.UnityTestProtocolModule.dll_6A8A281FEFBE087B.mvfrm
Library\Bee\artifacts\mvdfrm\UnityEngine.UnityWebRequestAssetBundleModule.dll_5A564FA35665B14A.mvfrm
Library\Bee\artifacts\mvdfrm\UnityEngine.UnityWebRequestAudioModule.dll_70483F905979C88E.mvfrm
Library\Bee\artifacts\mvdfrm\UnityEngine.UnityWebRequestModule.dll_C7B1FC4D0DBD286C.mvfrm
Library\Bee\artifacts\mvdfrm\UnityEngine.UnityWebRequestTextureModule.dll_CA19BD2C57871C23.mvfrm
Library\Bee\artifacts\mvdfrm\UnityEngine.UnityWebRequestWWWModule.dll_174D40EE2FF7AF5F.mvfrm
Library\Bee\artifacts\mvdfrm\UnityEngine.VehiclesModule.dll_675ED797EC1AE5AF.mvfrm
Library\Bee\artifacts\mvdfrm\UnityEngine.VFXModule.dll_DC27B04916B89F24.mvfrm
Library\Bee\artifacts\mvdfrm\UnityEngine.VideoModule.dll_922ADA958DD7D037.mvfrm
Library\Bee\artifacts\mvdfrm\UnityEngine.VRModule.dll_CBD96CFAF50EF704.mvfrm
Library\Bee\artifacts\mvdfrm\UnityEngine.WebGLModule.dll_0C8DCB39BD1BC655.mvfrm
Library\Bee\artifacts\mvdfrm\UnityEngine.WindModule.dll_79BE01AFB02BF0A0.mvfrm
Library\Bee\artifacts\mvdfrm\UnityEngine.XRModule.dll_FE982FFF7E494462.mvfrm
Library\Bee\artifacts\mvdfrm\Unity.VisualScripting.Antlr3.Runtime.dll_9799E61EF2A5ADA4.mvfrm