%YAML 1.1
%TAG !u! tag:unity3d.com,2011:
--- !u!1045 &1
EditorBuildSettings:
  m_ObjectHideFlags: 0
  serializedVersion: 2
  m_Scenes:
  - enabled: 1
    path: Assets/Scenes/Start.unity
    guid: 493ebfc5df7a89b4897bce064f00e520
  - enabled: 1
    path: Assets/Scenes/Game.unity
    guid: 2a4b424f343c0ef49bf52589a325fc4c
  - enabled: 1
    path: Assets/Scenes/End.unity
    guid: 0ba9602288e70a14cae2a631f2baf673
  m_configObjects:
    com.unity.addressableassets: {fileID: 11400000, guid: ea5ab9364532ee4439873e8cdd725ca2, type: 2}
