%YAML 1.1
%TAG !u! tag:unity3d.com,2011:
--- !u!114 &11400000
MonoBehaviour:
  m_ObjectHideFlags: 0
  m_CorrespondingSourceObject: {fileID: 0}
  m_PrefabInstance: {fileID: 0}
  m_PrefabAsset: {fileID: 0}
  m_GameObject: {fileID: 0}
  m_Enabled: 1
  m_EditorHideFlags: 0
  m_Script: {fileID: 11500000, guid: f918d92e6884400448b2b29bfd4e130b, type: 3}
  m_Name: RawFoodAsset
  m_EditorClassIdentifier: 
  configurName: RawFoodAsset
  rawFoodDataList:
  - foodName: steak
    resourcesName: Steak_RawFood
    isFoodMainType: 0
    rawFoodPrefab: {fileID: 155316304440026575, guid: 060c82e8498ec4742a9588d25666b865, type: 3}
    price: 10
  - foodName: shengcai
    resourcesName: ShengCai_Food
    isFoodMainType: 0
    rawFoodPrefab: {fileID: 8012286075754690850, guid: c004fcb997d5b564c9806cf2d1ebcdec, type: 3}
    price: 10
  - foodName: XiHongShi
    resourcesName: XiHongShi_Food
    isFoodMainType: 0
    rawFoodPrefab: {fileID: 8012286075754690850, guid: f8926998fdb86724fb79b52e839567c3, type: 3}
    price: 10
