-a="D:\wk\Project\weixincanting\WeiXinCT\Library\PlayerScriptAssemblies\Assembly-CSharp-firstpass.dll"
-a="D:\wk\Project\weixincanting\WeiXinCT\Library\PlayerScriptAssemblies\Assembly-CSharp.dll"
-a="D:\wk\Project\weixincanting\WeiXinCT\Library\PlayerScriptAssemblies\UnityEngine.TestRunner.dll"
-a="D:\wk\Project\weixincanting\WeiXinCT\Library\PlayerScriptAssemblies\Unity.Timeline.dll"
-a="D:\wk\Project\weixincanting\WeiXinCT\Library\PlayerScriptAssemblies\Unity.TextMeshPro.dll"
-a="D:\wk\Project\weixincanting\WeiXinCT\Library\PlayerScriptAssemblies\Unity.VisualScripting.Flow.dll"
-a="D:\wk\Project\weixincanting\WeiXinCT\Library\PlayerScriptAssemblies\UnityEngine.UI.dll"
-a="D:\wk\Project\weixincanting\WeiXinCT\Library\PlayerScriptAssemblies\Unity.VisualScripting.Core.dll"
-a="D:\wk\Project\weixincanting\WeiXinCT\Library\PlayerScriptAssemblies\Wx.dll"
-a="D:\wk\Project\weixincanting\WeiXinCT\Library\PlayerScriptAssemblies\Unity.ScriptableBuildPipeline.dll"
-a="D:\wk\Project\weixincanting\WeiXinCT\Library\PlayerScriptAssemblies\YooAsset.dll"
-a="D:\wk\Project\weixincanting\WeiXinCT\Library\PlayerScriptAssemblies\Unity.VisualScripting.State.dll"
-a="D:\wk\Project\weixincanting\WeiXinCT\Library\PlayerScriptAssemblies\Unity.Addressables.dll"
-a="D:\wk\Project\weixincanting\WeiXinCT\Library\PlayerScriptAssemblies\Unity.ResourceManager.dll"
-a="D:\wk\Project\weixincanting\WeiXinCT\Assets\WX-WASM-SDK-V2\Runtime\Plugins\wx-runtime.dll"
-a="D:\wk\Project\weixincanting\WeiXinCT\Assets\Plugins\Demigiant\DOTween\DOTween.dll"
-a="D:\wk\Project\weixincanting\WeiXinCT\Library\PackageCache\com.unity.testtools.codecoverage@1.2.2\lib\ReportGenerator\ReportGeneratorMerged.dll"
-a="D:\wk\Project\weixincanting\WeiXinCT\Assets\WX-WASM-SDK-V2\Runtime\Plugins\Unity.FontABTool.dll"
-a="D:\wk\Project\weixincanting\WeiXinCT\Library\PackageCache\com.unity.ext.nunit@1.0.6\net35\unity-custom\nunit.framework.dll"
-a="D:\wk\Project\weixincanting\WeiXinCT\Assets\WX-WASM-SDK-V2\Runtime\Plugins\wx-runtime-editor.dll"
-a="D:\wk\Project\weixincanting\WeiXinCT\Assets\WX-WASM-SDK-V2\Runtime\Plugins\LitJson.dll"
-a="D:\wk\Project\weixincanting\WeiXinCT\Library\PackageCache\com.unity.visualscripting@1.8.0\Runtime\VisualScripting.Flow\Dependencies\NCalc\Unity.VisualScripting.Antlr3.Runtime.dll"
-s="C:\Program Files\Unity\Hub\Editor\2021.3.20f1c1\Editor\Data\Managed\UnityEngine"
-s="C:\Program Files\Unity\Hub\Editor\2021.3.20f1c1\Editor\Data\PlaybackEngines\WebGLSupport\Managed"
-s="D:\wk\Project\weixincanting\WeiXinCT\Library\PlayerScriptAssemblies"
-s="D:\wk\Project\weixincanting\WeiXinCT\Assets\WX-WASM-SDK-V2\Runtime\Plugins"
-s="D:\wk\Project\weixincanting\WeiXinCT\Assets\Plugins\Demigiant\DOTween"
-s="D:\wk\Project\weixincanting\WeiXinCT\Library\PackageCache\com.unity.testtools.codecoverage@1.2.2\lib\ReportGenerator"
-s="D:\wk\Project\weixincanting\WeiXinCT\Library\PackageCache\com.unity.ext.nunit@1.0.6\net35\unity-custom"
-s="D:\wk\Project\weixincanting\WeiXinCT\Library\PackageCache\com.unity.visualscripting@1.8.0\Runtime\VisualScripting.Flow\Dependencies\NCalc"
-s="C:\Program Files\Unity\Hub\Editor\2021.3.20f1c1\Editor\Data\Managed\UnityEngine"
-s="C:\Program Files\Unity\Hub\Editor\2021.3.20f1c1\Editor\Data\PlaybackEngines\WebGLSupport\Managed"
-s="C:\Program Files\Unity\Hub\Editor\2021.3.20f1c1\Editor\Data\NetStandard\ref\2.1.0"
-s="C:\Program Files\Unity\Hub\Editor\2021.3.20f1c1\Editor\Data\NetStandard\compat\2.1.0\shims\netstandard"
-s="C:\Program Files\Unity\Hub\Editor\2021.3.20f1c1\Editor\Data\NetStandard\Extensions\2.0.0"
-s="C:\Program Files\Unity\Hub\Editor\2021.3.20f1c1\Editor\Data\NetStandard\compat\2.1.0\shims\netfx"
-o="D:\wk\Project\weixincanting\WeiXinCT\Library\BuildPlayerData\Player"
-rn="RuntimeInitializeOnLoads.json"
-tn="TypeDb-All.json"
