[
    {
        "otherFoodID": "1",
        "otherFoodNmae": "XiHongShi",
        "mainFood": "steak",
        "unLoackLevel": 3,
        "otherFoodPrice": "2",
        "upFoodPrice": "2",
        "shopName": "Shop_1"
    },
    {
        "otherFoodID": "2",
        "otherFoodNmae": "shengcai",
        "mainFood": "steak",
        "unLoackLevel": 5,
        "otherFoodPrice": "2",
        "upFoodPrice": "2",
        "shopName": "Shop_1"
    },
    {
        "otherFoodID": "3",
        "otherFoodNmae": "FanGQieJian",
        "mainFood": "steak",
        "unLoackLevel": 7,
        "otherFoodPrice": "2",
        "upFoodPrice": "2",
        "shopName": "Shop_1"
    },
    {
        "otherFoodID": "4",
        "otherFoodNmae": "TianCuJian",
        "mainFood": "steak",
        "unLoackLevel": 8,
        "otherFoodPrice": "2",
        "upFoodPrice": "2",
        "shopName": "Shop_1"
    },
    {
        "otherFoodID": "5",
        "otherFoodNmae": "HanBaoBeef",
        "mainFood": "HanBao",
        "unLoackLevel": 1,
        "otherFoodPrice": "2",
        "upFoodPrice": "2",
        "shopName": "Shop_2"
    },
    {
        "otherFoodID": "6",
        "otherFoodNmae": "SuanNai",
        "mainFood": "ShuPian",
        "unLoackLevel": 8,
        "otherFoodPrice": "2",
        "upFoodPrice": "2",
        "shopName": "Shop_2"
    },
    {
        "otherFoodID": "7",
        "otherFoodNmae": "HanBaoNaiNao",
        "mainFood": "HanBao",
        "unLoackLevel": 12,
        "otherFoodPrice": "2",
        "upFoodPrice": "2",
        "shopName": "Shop_2"
    },
    {
        "otherFoodID": "8",
        "otherFoodNmae": "HanBaoYangCong",
        "mainFood": "HanBao",
        "unLoackLevel": 15,
        "otherFoodPrice": "2",
        "upFoodPrice": "2",
        "shopName": "Shop_2"
    },
    {
        "otherFoodID": "9",
        "otherFoodNmae": "HuanGuaPian",
        "mainFood": "ShuPian",
        "unLoackLevel": 25,
        "otherFoodPrice": "2",
        "upFoodPrice": "2",
        "shopName": "Shop_2"
    },
    {
        "otherFoodID": "10",
        "otherFoodNmae": "HanBaoShengCai",
        "mainFood": "HanBao",
        "unLoackLevel": 30,
        "otherFoodPrice": "2",
        "upFoodPrice": "2",
        "shopName": "Shop_2"
    },
    {
        "otherFoodID": "11",
        "otherFoodNmae": "FangQeiZhi",
        "mainFood": "ShuPian",
        "unLoackLevel": 30,
        "otherFoodPrice": "2",
        "upFoodPrice": "2",
        "shopName": "Shop_2"
    }
]