[
    {
        "levelID": 16,
        "levelGrade": 1,
        "mainFood1": "ShuPian",
        "mainFood2": "HanBao",
        "mainFood3": " null",
        "otherFood1": "HanBaoBeef",
        "otherFood2": "HanBaoNaiNao",
        "otherFood3": "HanBaoYangCong",
        "otherFood4": "HanBaoShengCai",
        "otherFood5": "null",
        "otherFood6": "null",
        "otherFood7": "null",
        "device1": "null",
        "device2": "null",
        "device3": "null ",
        "device4": "null",
        "foodMakeDeviceName1": "null",
        "foodMakeDeviceName2": "null",
        "foodSubMitDeviceName1": "null",
        "foodSubMitDeviceName2": "null",
        "drinkeDeviceName": "null",
        "drinke": "oriange",
        "drinkeDevice": "drinkDevice_2",
        "levelResources": "Restaurant_2",
        "levelGuest": "leveGuest_1",
        "chairCount": 4,
        "unLoackKeyCunnt": 0,
        "levelCionTraget": 0,
        "compeletFoodNumber": 5,
        "goodTarget": 0,
        "continuTarget": 0,
        "gustCount": 6,
        "levelCompeletTime": 0,
        "specialLimitType1": 0,
        "specialLimitType2": 0,
        "specialLimitType3": 0,
        "prizeCionNumber": 0,
        "prizeKeyNumber": 0,
        "recommendUpType": 0,
        "recomenUpdName": "null",
        "toUpGrade": "0",
        "recomendPropType": 0
    },
    {
        "levelID": 17,
        "levelGrade": 2,
        "mainFood1": "ShuPian",
        "mainFood2": "HanBao",
        "mainFood3": " null",
        "otherFood1": "HanBaoBeef",
        "otherFood2": "HanBaoNaiNao",
        "otherFood3": "HanBaoYangCong",
        "otherFood4": "HanBaoShengCai",
        "otherFood5": "null",
        "otherFood6": "null",
        "otherFood7": "null",
        "device1": "null",
        "device2": "null",
        "device3": "null ",
        "device4": "null",
        "foodMakeDeviceName1": "null",
        "foodMakeDeviceName2": "null",
        "foodSubMitDeviceName1": "null",
        "foodSubMitDeviceName2": "null",
        "drinkeDeviceName": "null",
        "drinke": "oriange",
        "drinkeDevice": "drinkDevice_2",
        "levelResources": "Restaurant_2",
        "levelGuest": "leveGuest_2",
        "chairCount": 4,
        "unLoackKeyCunnt": 0,
        "levelCionTraget": 0,
        "compeletFoodNumber": 9,
        "goodTarget": 0,
        "continuTarget": 0,
        "gustCount": 8,
        "levelCompeletTime": 0,
        "specialLimitType1": 0,
        "specialLimitType2": 0,
        "specialLimitType3": 0,
        "prizeCionNumber": 0,
        "prizeKeyNumber": 0,
        "recommendUpType": 0,
        "recomenUpdName": "null",
        "toUpGrade": "0",
        "recomendPropType": 0
    },
    {
        "levelID": 18,
        "levelGrade": 3,
        "mainFood1": "ShuPian",
        "mainFood2": "HanBao",
        "mainFood3": " null",
        "otherFood1": "HanBaoBeef",
        "otherFood2": "FangQeiZhi",
        "otherFood3": "HuanGuaPian",
        "otherFood4": "SuanNai",
        "otherFood5": "null",
        "otherFood6": "null",
        "otherFood7": "null",
        "device1": "null",
        "device2": "null",
        "device3": "null ",
        "device4": "null",
        "foodMakeDeviceName1": "null",
        "foodMakeDeviceName2": "null",
        "foodSubMitDeviceName1": "null",
        "foodSubMitDeviceName2": "null",
        "drinkeDeviceName": "null",
        "drinke": "oriange",
        "drinkeDevice": "drinkDevice_2",
        "levelResources": "Restaurant_2",
        "levelGuest": "leveGuest_3",
        "chairCount": 4,
        "unLoackKeyCunnt": 0,
        "levelCionTraget": 80,
        "compeletFoodNumber": 0,
        "goodTarget": 0,
        "continuTarget": 0,
        "gustCount": 10,
        "levelCompeletTime": 0,
        "specialLimitType1": 0,
        "specialLimitType2": 0,
        "specialLimitType3": 0,
        "prizeCionNumber": 0,
        "prizeKeyNumber": 0,
        "recommendUpType": 0,
        "recomenUpdName": "null",
        "toUpGrade": "0",
        "recomendPropType": 0
    },
    {
        "levelID": 19,
        "levelGrade": 4,
        "mainFood1": "ShuPian",
        "mainFood2": "HanBao",
        "mainFood3": " null",
        "otherFood1": "HanBaoBeef",
        "otherFood2": "HanBaoNaiNao",
        "otherFood3": "HanBaoYangCong",
        "otherFood4": "HanBaoShengCai",
        "otherFood5": "FangQeiZhi",
        "otherFood6": "HuanGuaPian",
        "otherFood7": "SuanNai",
        "device1": "null",
        "device2": "null",
        "device3": "null ",
        "device4": "null",
        "foodMakeDeviceName1": "null",
        "foodMakeDeviceName2": "null",
        "foodSubMitDeviceName1": "null",
        "foodSubMitDeviceName2": "null",
        "drinkeDeviceName": "null",
        "drinke": "oriange",
        "drinkeDevice": "drinkDevice_2",
        "levelResources": "Restaurant_2",
        "levelGuest": "leveGuest_4",
        "chairCount": 4,
        "unLoackKeyCunnt": 0,
        "levelCionTraget": 140,
        "compeletFoodNumber": 0,
        "goodTarget": 0,
        "continuTarget": 0,
        "gustCount": 12,
        "levelCompeletTime": 0,
        "specialLimitType1": 0,
        "specialLimitType2": 0,
        "specialLimitType3": 0,
        "prizeCionNumber": 0,
        "prizeKeyNumber": 0,
        "recommendUpType": 0,
        "recomenUpdName": "null",
        "toUpGrade": "0",
        "recomendPropType": 0
    },
    {
        "levelID": 20,
        "levelGrade": 5,
        "mainFood1": "ShuPian",
        "mainFood2": "HanBao",
        "mainFood3": " null",
        "otherFood1": "HanBaoBeef",
        "otherFood2": "HanBaoNaiNao",
        "otherFood3": "HanBaoYangCong",
        "otherFood4": "HanBaoShengCai",
        "otherFood5": "FangQeiZhi",
        "otherFood6": "HuanGuaPian",
        "otherFood7": "SuanNai",
        "device1": "null",
        "device2": "null",
        "device3": "null ",
        "device4": "null",
        "foodMakeDeviceName1": "null",
        "foodMakeDeviceName2": "null",
        "foodSubMitDeviceName1": "null",
        "foodSubMitDeviceName2": "null",
        "drinkeDeviceName": "null",
        "drinke": "oriange",
        "drinkeDevice": "drinkDevice_2",
        "levelResources": "Restaurant_2",
        "levelGuest": "leveGuest_5",
        "chairCount": 4,
        "unLoackKeyCunnt": 0,
        "levelCionTraget": 0,
        "compeletFoodNumber": 12,
        "goodTarget": 0,
        "continuTarget": 0,
        "gustCount": 10,
        "levelCompeletTime": 0,
        "specialLimitType1": 0,
        "specialLimitType2": 0,
        "specialLimitType3": 0,
        "prizeCionNumber": 0,
        "prizeKeyNumber": 0,
        "recommendUpType": 0,
        "recomenUpdName": "null",
        "toUpGrade": "0",
        "recomendPropType": 0
    },
    {
        "levelID": 21,
        "levelGrade": 6,
        "mainFood1": "ShuPian",
        "mainFood2": "HanBao",
        "mainFood3": " null",
        "otherFood1": "HanBaoBeef",
        "otherFood2": "HanBaoNaiNao",
        "otherFood3": "HanBaoYangCong",
        "otherFood4": "HanBaoShengCai",
        "otherFood5": "FangQeiZhi",
        "otherFood6": "HuanGuaPian",
        "otherFood7": "SuanNai",
        "device1": "null",
        "device2": "null",
        "device3": "null ",
        "device4": "null",
        "foodMakeDeviceName1": "null",
        "foodMakeDeviceName2": "null",
        "foodSubMitDeviceName1": "null",
        "foodSubMitDeviceName2": "null",
        "drinkeDeviceName": "null",
        "drinke": "oriange",
        "drinkeDevice": "drinkDevice_2",
        "levelResources": "Restaurant_2",
        "levelGuest": "leveGuest_6",
        "chairCount": 4,
        "unLoackKeyCunnt": 0,
        "levelCionTraget": 155,
        "compeletFoodNumber": 0,
        "goodTarget": 0,
        "continuTarget": 0,
        "gustCount": 15,
        "levelCompeletTime": 0,
        "specialLimitType1": 0,
        "specialLimitType2": 0,
        "specialLimitType3": 0,
        "prizeCionNumber": 0,
        "prizeKeyNumber": 0,
        "recommendUpType": 0,
        "recomenUpdName": "null",
        "toUpGrade": "0",
        "recomendPropType": 0
    },
    {
        "levelID": 22,
        "levelGrade": 7,
        "mainFood1": "ShuPian",
        "mainFood2": "HanBao",
        "mainFood3": " null",
        "otherFood1": "HanBaoBeef",
        "otherFood2": "HanBaoNaiNao",
        "otherFood3": "HanBaoYangCong",
        "otherFood4": "HanBaoShengCai",
        "otherFood5": "FangQeiZhi",
        "otherFood6": "HuanGuaPian",
        "otherFood7": "SuanNai",
        "device1": "null",
        "device2": "null",
        "device3": "null ",
        "device4": "null",
        "foodMakeDeviceName1": "null",
        "foodMakeDeviceName2": "null",
        "foodSubMitDeviceName1": "null",
        "foodSubMitDeviceName2": "null",
        "drinkeDeviceName": "null",
        "drinke": "oriange",
        "drinkeDevice": "drinkDevice_2",
        "levelResources": "Restaurant_2",
        "levelGuest": "leveGuest_7",
        "chairCount": 4,
        "unLoackKeyCunnt": 0,
        "levelCionTraget": 160,
        "compeletFoodNumber": 0,
        "goodTarget": 0,
        "continuTarget": 0,
        "gustCount": 0,
        "levelCompeletTime": 65,
        "specialLimitType1": 0,
        "specialLimitType2": 0,
        "specialLimitType3": 0,
        "prizeCionNumber": 0,
        "prizeKeyNumber": 0,
        "recommendUpType": 0,
        "recomenUpdName": "null",
        "toUpGrade": "0",
        "recomendPropType": 0
    },
    {
        "levelID": 23,
        "levelGrade": 8,
        "mainFood1": "ShuPian",
        "mainFood2": "HanBao",
        "mainFood3": " null",
        "otherFood1": "HanBaoBeef",
        "otherFood2": "HanBaoNaiNao",
        "otherFood3": "HanBaoYangCong",
        "otherFood4": "HanBaoShengCai",
        "otherFood5": "FangQeiZhi",
        "otherFood6": "HuanGuaPian",
        "otherFood7": "SuanNai",
        "device1": "null",
        "device2": "null",
        "device3": "null ",
        "device4": "null",
        "foodMakeDeviceName1": "null",
        "foodMakeDeviceName2": "null",
        "foodSubMitDeviceName1": "null",
        "foodSubMitDeviceName2": "null",
        "drinkeDeviceName": "null",
        "drinke": "oriange",
        "drinkeDevice": "drinkDevice_2",
        "levelResources": "Restaurant_2",
        "levelGuest": "leveGuest_8",
        "chairCount": 4,
        "unLoackKeyCunnt": 0,
        "levelCionTraget": 300,
        "compeletFoodNumber": 0,
        "goodTarget": 0,
        "continuTarget": 0,
        "gustCount": 16,
        "levelCompeletTime": 0,
        "specialLimitType1": 0,
        "specialLimitType2": 0,
        "specialLimitType3": 0,
        "prizeCionNumber": 0,
        "prizeKeyNumber": 0,
        "recommendUpType": 0,
        "recomenUpdName": "null",
        "toUpGrade": "0",
        "recomendPropType": 0
    },
    {
        "levelID": 24,
        "levelGrade": 9,
        "mainFood1": "ShuPian",
        "mainFood2": "HanBao",
        "mainFood3": " null",
        "otherFood1": "HanBaoBeef",
        "otherFood2": "HanBaoNaiNao",
        "otherFood3": "HanBaoYangCong",
        "otherFood4": "HanBaoShengCai",
        "otherFood5": "FangQeiZhi",
        "otherFood6": "HuanGuaPian",
        "otherFood7": "SuanNai",
        "device1": "null",
        "device2": "null",
        "device3": "null ",
        "device4": "null",
        "foodMakeDeviceName1": "null",
        "foodMakeDeviceName2": "null",
        "foodSubMitDeviceName1": "null",
        "foodSubMitDeviceName2": "null",
        "drinkeDeviceName": "null",
        "drinke": "oriange",
        "drinkeDevice": "drinkDevice_2",
        "levelResources": "Restaurant_2",
        "levelGuest": "leveGuest_9",
        "chairCount": 4,
        "unLoackKeyCunnt": 0,
        "levelCionTraget": 0,
        "compeletFoodNumber": 0,
        "goodTarget": 16,
        "continuTarget": 0,
        "gustCount": 17,
        "levelCompeletTime": 0,
        "specialLimitType1": 0,
        "specialLimitType2": 0,
        "specialLimitType3": 0,
        "prizeCionNumber": 0,
        "prizeKeyNumber": 0,
        "recommendUpType": 0,
        "recomenUpdName": "null",
        "toUpGrade": "0",
        "recomendPropType": 0
    },
    {
        "levelID": 25,
        "levelGrade": 10,
        "mainFood1": "ShuPian",
        "mainFood2": "HanBao",
        "mainFood3": " null",
        "otherFood1": "HanBaoBeef",
        "otherFood2": "HanBaoNaiNao",
        "otherFood3": "HanBaoYangCong",
        "otherFood4": "HanBaoShengCai",
        "otherFood5": "FangQeiZhi",
        "otherFood6": "HuanGuaPian",
        "otherFood7": "SuanNai",
        "device1": "null",
        "device2": "null",
        "device3": "null ",
        "device4": "null",
        "foodMakeDeviceName1": "null",
        "foodMakeDeviceName2": "null",
        "foodSubMitDeviceName1": "null",
        "foodSubMitDeviceName2": "null",
        "drinkeDeviceName": "null",
        "drinke": "oriange",
        "drinkeDevice": "drinkDevice_2",
        "levelResources": "Restaurant_2",
        "levelGuest": "leveGuest_10",
        "chairCount": 4,
        "unLoackKeyCunnt": 0,
        "levelCionTraget": 380,
        "compeletFoodNumber": 0,
        "goodTarget": 0,
        "continuTarget": 0,
        "gustCount": 14,
        "levelCompeletTime": 0,
        "specialLimitType1": 0,
        "specialLimitType2": 0,
        "specialLimitType3": 0,
        "prizeCionNumber": 0,
        "prizeKeyNumber": 0,
        "recommendUpType": 0,
        "recomenUpdName": "null",
        "toUpGrade": "0",
        "recomendPropType": 0
    },
    {
        "levelID": 26,
        "levelGrade": 11,
        "mainFood1": "ShuPian",
        "mainFood2": "HanBao",
        "mainFood3": " null",
        "otherFood1": "HanBaoBeef",
        "otherFood2": "HanBaoNaiNao",
        "otherFood3": "HanBaoYangCong",
        "otherFood4": "HanBaoShengCai",
        "otherFood5": "FangQeiZhi",
        "otherFood6": "HuanGuaPian",
        "otherFood7": "SuanNai",
        "device1": "null",
        "device2": "null",
        "device3": "null ",
        "device4": "null",
        "foodMakeDeviceName1": "null",
        "foodMakeDeviceName2": "null",
        "foodSubMitDeviceName1": "null",
        "foodSubMitDeviceName2": "null",
        "drinkeDeviceName": "null",
        "drinke": "oriange",
        "drinkeDevice": "drinkDevice_2",
        "levelResources": "Restaurant_2",
        "levelGuest": "leveGuest_11",
        "chairCount": 4,
        "unLoackKeyCunnt": 0,
        "levelCionTraget": 0,
        "compeletFoodNumber": 20,
        "goodTarget": 0,
        "continuTarget": 0,
        "gustCount": 0,
        "levelCompeletTime": 90,
        "specialLimitType1": 1,
        "specialLimitType2": 0,
        "specialLimitType3": 0,
        "prizeCionNumber": 0,
        "prizeKeyNumber": 0,
        "recommendUpType": 0,
        "recomenUpdName": "null",
        "toUpGrade": "0",
        "recomendPropType": 0
    },
    {
        "levelID": 27,
        "levelGrade": 12,
        "mainFood1": "ShuPian",
        "mainFood2": "HanBao",
        "mainFood3": " null",
        "otherFood1": "HanBaoBeef",
        "otherFood2": "HanBaoNaiNao",
        "otherFood3": "HanBaoYangCong",
        "otherFood4": "HanBaoShengCai",
        "otherFood5": "FangQeiZhi",
        "otherFood6": "HuanGuaPian",
        "otherFood7": "SuanNai",
        "device1": "null",
        "device2": "null",
        "device3": "null ",
        "device4": "null",
        "foodMakeDeviceName1": "null",
        "foodMakeDeviceName2": "null",
        "foodSubMitDeviceName1": "null",
        "foodSubMitDeviceName2": "null",
        "drinkeDeviceName": "null",
        "drinke": "oriange",
        "drinkeDevice": "drinkDevice_2",
        "levelResources": "Restaurant_2",
        "levelGuest": "leveGuest_12",
        "chairCount": 4,
        "unLoackKeyCunnt": 0,
        "levelCionTraget": 350,
        "compeletFoodNumber": 0,
        "goodTarget": 0,
        "continuTarget": 0,
        "gustCount": 17,
        "levelCompeletTime": 0,
        "specialLimitType1": 0,
        "specialLimitType2": 0,
        "specialLimitType3": 0,
        "prizeCionNumber": 0,
        "prizeKeyNumber": 0,
        "recommendUpType": 0,
        "recomenUpdName": "null",
        "toUpGrade": "0",
        "recomendPropType": 0
    },
    {
        "levelID": 28,
        "levelGrade": 13,
        "mainFood1": "ShuPian",
        "mainFood2": "HanBao",
        "mainFood3": " null",
        "otherFood1": "HanBaoBeef",
        "otherFood2": "HanBaoNaiNao",
        "otherFood3": "HanBaoYangCong",
        "otherFood4": "HanBaoShengCai",
        "otherFood5": "FangQeiZhi",
        "otherFood6": "HuanGuaPian",
        "otherFood7": "SuanNai",
        "device1": "null",
        "device2": "null",
        "device3": "null ",
        "device4": "null",
        "foodMakeDeviceName1": "null",
        "foodMakeDeviceName2": "null",
        "foodSubMitDeviceName1": "null",
        "foodSubMitDeviceName2": "null",
        "drinkeDeviceName": "null",
        "drinke": "oriange",
        "drinkeDevice": "drinkDevice_2",
        "levelResources": "Restaurant_2",
        "levelGuest": "leveGuest_13",
        "chairCount": 4,
        "unLoackKeyCunnt": 0,
        "levelCionTraget": 0,
        "compeletFoodNumber": 0,
        "goodTarget": 13,
        "continuTarget": 0,
        "gustCount": 0,
        "levelCompeletTime": 75,
        "specialLimitType1": 3,
        "specialLimitType2": 0,
        "specialLimitType3": 0,
        "prizeCionNumber": 0,
        "prizeKeyNumber": 0,
        "recommendUpType": 0,
        "recomenUpdName": "null",
        "toUpGrade": "0",
        "recomendPropType": 0
    },
    {
        "levelID": 29,
        "levelGrade": 14,
        "mainFood1": "ShuPian",
        "mainFood2": "HanBao",
        "mainFood3": " null",
        "otherFood1": "HanBaoBeef",
        "otherFood2": "HanBaoNaiNao",
        "otherFood3": "HanBaoYangCong",
        "otherFood4": "HanBaoShengCai",
        "otherFood5": "FangQeiZhi",
        "otherFood6": "HuanGuaPian",
        "otherFood7": "SuanNai",
        "device1": "null",
        "device2": "null",
        "device3": "null ",
        "device4": "null",
        "foodMakeDeviceName1": "null",
        "foodMakeDeviceName2": "null",
        "foodSubMitDeviceName1": "null",
        "foodSubMitDeviceName2": "null",
        "drinkeDeviceName": "null",
        "drinke": "oriange",
        "drinkeDevice": "drinkDevice_2",
        "levelResources": "Restaurant_2",
        "levelGuest": "leveGuest_14",
        "chairCount": 4,
        "unLoackKeyCunnt": 0,
        "levelCionTraget": 360,
        "compeletFoodNumber": 0,
        "goodTarget": 0,
        "continuTarget": 0,
        "gustCount": 0,
        "levelCompeletTime": 65,
        "specialLimitType1": 1,
        "specialLimitType2": 0,
        "specialLimitType3": 0,
        "prizeCionNumber": 0,
        "prizeKeyNumber": 0,
        "recommendUpType": 0,
        "recomenUpdName": "null",
        "toUpGrade": "0",
        "recomendPropType": 0
    },
    {
        "levelID": 30,
        "levelGrade": 15,
        "mainFood1": "ShuPian",
        "mainFood2": "HanBao",
        "mainFood3": " null",
        "otherFood1": "HanBaoBeef",
        "otherFood2": "HanBaoNaiNao",
        "otherFood3": "HanBaoYangCong",
        "otherFood4": "HanBaoShengCai",
        "otherFood5": "FangQeiZhi",
        "otherFood6": "HuanGuaPian",
        "otherFood7": "SuanNai",
        "device1": "null",
        "device2": "null",
        "device3": "null ",
        "device4": "null",
        "foodMakeDeviceName1": "null",
        "foodMakeDeviceName2": "null",
        "foodSubMitDeviceName1": "null",
        "foodSubMitDeviceName2": "null",
        "drinkeDeviceName": "null",
        "drinke": "oriange",
        "drinkeDevice": "drinkDevice_2",
        "levelResources": "Restaurant_2",
        "levelGuest": "leveGuest_15",
        "chairCount": 4,
        "unLoackKeyCunnt": 0,
        "levelCionTraget": 0,
        "compeletFoodNumber": 21,
        "goodTarget": 0,
        "continuTarget": 0,
        "gustCount": 15,
        "levelCompeletTime": 0,
        "specialLimitType1": 3,
        "specialLimitType2": 0,
        "specialLimitType3": 0,
        "prizeCionNumber": 0,
        "prizeKeyNumber": 0,
        "recommendUpType": 0,
        "recomenUpdName": "null",
        "toUpGrade": "0",
        "recomendPropType": 0
    },
    {
        "levelID": 31,
        "levelGrade": 16,
        "mainFood1": "ShuPian",
        "mainFood2": "HanBao",
        "mainFood3": " null",
        "otherFood1": "HanBaoBeef",
        "otherFood2": "HanBaoNaiNao",
        "otherFood3": "HanBaoYangCong",
        "otherFood4": "HanBaoShengCai",
        "otherFood5": "FangQeiZhi",
        "otherFood6": "HuanGuaPian",
        "otherFood7": "SuanNai",
        "device1": "null",
        "device2": "null",
        "device3": "null ",
        "device4": "null",
        "foodMakeDeviceName1": "null",
        "foodMakeDeviceName2": "null",
        "foodSubMitDeviceName1": "null",
        "foodSubMitDeviceName2": "null",
        "drinkeDeviceName": "null",
        "drinke": "oriange",
        "drinkeDevice": "drinkDevice_2",
        "levelResources": "Restaurant_2",
        "levelGuest": "leveGuest_16",
        "chairCount": 4,
        "unLoackKeyCunnt": 0,
        "levelCionTraget": 360,
        "compeletFoodNumber": 0,
        "goodTarget": 0,
        "continuTarget": 0,
        "gustCount": 12,
        "levelCompeletTime": 0,
        "specialLimitType1": 0,
        "specialLimitType2": 0,
        "specialLimitType3": 0,
        "prizeCionNumber": 0,
        "prizeKeyNumber": 0,
        "recommendUpType": 0,
        "recomenUpdName": "null",
        "toUpGrade": "0",
        "recomendPropType": 0
    },
    {
        "levelID": 32,
        "levelGrade": 17,
        "mainFood1": "ShuPian",
        "mainFood2": "HanBao",
        "mainFood3": " null",
        "otherFood1": "HanBaoBeef",
        "otherFood2": "HanBaoNaiNao",
        "otherFood3": "HanBaoYangCong",
        "otherFood4": "HanBaoShengCai",
        "otherFood5": "FangQeiZhi",
        "otherFood6": "HuanGuaPian",
        "otherFood7": "SuanNai",
        "device1": "null",
        "device2": "null",
        "device3": "null ",
        "device4": "null",
        "foodMakeDeviceName1": "null",
        "foodMakeDeviceName2": "null",
        "foodSubMitDeviceName1": "null",
        "foodSubMitDeviceName2": "null",
        "drinkeDeviceName": "null",
        "drinke": "oriange",
        "drinkeDevice": "drinkDevice_2",
        "levelResources": "Restaurant_2",
        "levelGuest": "leveGuest_17",
        "chairCount": 4,
        "unLoackKeyCunnt": 0,
        "levelCionTraget": 0,
        "compeletFoodNumber": 0,
        "goodTarget": 14,
        "continuTarget": 0,
        "gustCount": 16,
        "levelCompeletTime": 0,
        "specialLimitType1": 0,
        "specialLimitType2": 0,
        "specialLimitType3": 0,
        "prizeCionNumber": 0,
        "prizeKeyNumber": 0,
        "recommendUpType": 0,
        "recomenUpdName": "null",
        "toUpGrade": "0",
        "recomendPropType": 0
    },
    {
        "levelID": 33,
        "levelGrade": 18,
        "mainFood1": "ShuPian",
        "mainFood2": "HanBao",
        "mainFood3": " null",
        "otherFood1": "HanBaoBeef",
        "otherFood2": "HanBaoNaiNao",
        "otherFood3": "HanBaoYangCong",
        "otherFood4": "HanBaoShengCai",
        "otherFood5": "FangQeiZhi",
        "otherFood6": "HuanGuaPian",
        "otherFood7": "SuanNai",
        "device1": "null",
        "device2": "null",
        "device3": "null ",
        "device4": "null",
        "foodMakeDeviceName1": "null",
        "foodMakeDeviceName2": "null",
        "foodSubMitDeviceName1": "null",
        "foodSubMitDeviceName2": "null",
        "drinkeDeviceName": "null",
        "drinke": "oriange",
        "drinkeDevice": "drinkDevice_2",
        "levelResources": "Restaurant_2",
        "levelGuest": "leveGuest_18",
        "chairCount": 4,
        "unLoackKeyCunnt": 0,
        "levelCionTraget": 0,
        "compeletFoodNumber": 27,
        "goodTarget": 0,
        "continuTarget": 0,
        "gustCount": 16,
        "levelCompeletTime": 0,
        "specialLimitType1": 1,
        "specialLimitType2": 0,
        "specialLimitType3": 0,
        "prizeCionNumber": 0,
        "prizeKeyNumber": 0,
        "recommendUpType": 0,
        "recomenUpdName": "null",
        "toUpGrade": "0",
        "recomendPropType": 0
    },
    {
        "levelID": 34,
        "levelGrade": 19,
        "mainFood1": "ShuPian",
        "mainFood2": "HanBao",
        "mainFood3": " null",
        "otherFood1": "HanBaoBeef",
        "otherFood2": "HanBaoNaiNao",
        "otherFood3": "HanBaoYangCong",
        "otherFood4": "HanBaoShengCai",
        "otherFood5": "FangQeiZhi",
        "otherFood6": "HuanGuaPian",
        "otherFood7": "SuanNai",
        "device1": "null",
        "device2": "null",
        "device3": "null ",
        "device4": "null",
        "foodMakeDeviceName1": "null",
        "foodMakeDeviceName2": "null",
        "foodSubMitDeviceName1": "null",
        "foodSubMitDeviceName2": "null",
        "drinkeDeviceName": "null",
        "drinke": "oriange",
        "drinkeDevice": "drinkDevice_2",
        "levelResources": "Restaurant_2",
        "levelGuest": "leveGuest_19",
        "chairCount": 4,
        "unLoackKeyCunnt": 0,
        "levelCionTraget": 0,
        "compeletFoodNumber": 18,
        "goodTarget": 16,
        "continuTarget": 0,
        "gustCount": 0,
        "levelCompeletTime": 65,
        "specialLimitType1": 0,
        "specialLimitType2": 0,
        "specialLimitType3": 0,
        "prizeCionNumber": 0,
        "prizeKeyNumber": 0,
        "recommendUpType": 0,
        "recomenUpdName": "null",
        "toUpGrade": "0",
        "recomendPropType": 0
    },
    {
        "levelID": 35,
        "levelGrade": 20,
        "mainFood1": "ShuPian",
        "mainFood2": "HanBao",
        "mainFood3": " null",
        "otherFood1": "HanBaoBeef",
        "otherFood2": "HanBaoNaiNao",
        "otherFood3": "HanBaoYangCong",
        "otherFood4": "HanBaoShengCai",
        "otherFood5": "FangQeiZhi",
        "otherFood6": "HuanGuaPian",
        "otherFood7": "SuanNai",
        "device1": "null",
        "device2": "null",
        "device3": "null ",
        "device4": "null",
        "foodMakeDeviceName1": "null",
        "foodMakeDeviceName2": "null",
        "foodSubMitDeviceName1": "null",
        "foodSubMitDeviceName2": "null",
        "drinkeDeviceName": "null",
        "drinke": "oriange",
        "drinkeDevice": "drinkDevice_2",
        "levelResources": "Restaurant_2",
        "levelGuest": "leveGuest_20",
        "chairCount": 4,
        "unLoackKeyCunnt": 0,
        "levelCionTraget": 300,
        "compeletFoodNumber": 0,
        "goodTarget": 16,
        "continuTarget": 0,
        "gustCount": 17,
        "levelCompeletTime": 0,
        "specialLimitType1": 0,
        "specialLimitType2": 0,
        "specialLimitType3": 0,
        "prizeCionNumber": 0,
        "prizeKeyNumber": 0,
        "recommendUpType": 0,
        "recomenUpdName": "null",
        "toUpGrade": "0",
        "recomendPropType": 0
    },
    {
        "levelID": 36,
        "levelGrade": 21,
        "mainFood1": "ShuPian",
        "mainFood2": "HanBao",
        "mainFood3": " null",
        "otherFood1": "HanBaoBeef",
        "otherFood2": "HanBaoNaiNao",
        "otherFood3": "HanBaoYangCong",
        "otherFood4": "HanBaoShengCai",
        "otherFood5": "FangQeiZhi",
        "otherFood6": "HuanGuaPian",
        "otherFood7": "SuanNai",
        "device1": "null",
        "device2": "null",
        "device3": "null ",
        "device4": "null",
        "foodMakeDeviceName1": "null",
        "foodMakeDeviceName2": "null",
        "foodSubMitDeviceName1": "null",
        "foodSubMitDeviceName2": "null",
        "drinkeDeviceName": "null",
        "drinke": "oriange",
        "drinkeDevice": "drinkDevice_2",
        "levelResources": "Restaurant_2",
        "levelGuest": "leveGuest_21",
        "chairCount": 4,
        "unLoackKeyCunnt": 0,
        "levelCionTraget": 500,
        "compeletFoodNumber": 0,
        "goodTarget": 0,
        "continuTarget": 0,
        "gustCount": 0,
        "levelCompeletTime": 60,
        "specialLimitType1": 2,
        "specialLimitType2": 0,
        "specialLimitType3": 0,
        "prizeCionNumber": 0,
        "prizeKeyNumber": 0,
        "recommendUpType": 0,
        "recomenUpdName": "null",
        "toUpGrade": "0",
        "recomendPropType": 0
    },
    {
        "levelID": 37,
        "levelGrade": 22,
        "mainFood1": "ShuPian",
        "mainFood2": "HanBao",
        "mainFood3": " null",
        "otherFood1": "HanBaoBeef",
        "otherFood2": "HanBaoNaiNao",
        "otherFood3": "HanBaoYangCong",
        "otherFood4": "HanBaoShengCai",
        "otherFood5": "FangQeiZhi",
        "otherFood6": "HuanGuaPian",
        "otherFood7": "SuanNai",
        "device1": "null",
        "device2": "null",
        "device3": "null ",
        "device4": "null",
        "foodMakeDeviceName1": "null",
        "foodMakeDeviceName2": "null",
        "foodSubMitDeviceName1": "null",
        "foodSubMitDeviceName2": "null",
        "drinkeDeviceName": "null",
        "drinke": "oriange",
        "drinkeDevice": "drinkDevice_2",
        "levelResources": "Restaurant_2",
        "levelGuest": "leveGuest_22",
        "chairCount": 4,
        "unLoackKeyCunnt": 0,
        "levelCionTraget": 0,
        "compeletFoodNumber": 0,
        "goodTarget": 21,
        "continuTarget": 0,
        "gustCount": 22,
        "levelCompeletTime": 0,
        "specialLimitType1": 1,
        "specialLimitType2": 0,
        "specialLimitType3": 0,
        "prizeCionNumber": 0,
        "prizeKeyNumber": 0,
        "recommendUpType": 0,
        "recomenUpdName": "null",
        "toUpGrade": "0",
        "recomendPropType": 0
    },
    {
        "levelID": 38,
        "levelGrade": 23,
        "mainFood1": "ShuPian",
        "mainFood2": "HanBao",
        "mainFood3": " null",
        "otherFood1": "HanBaoBeef",
        "otherFood2": "HanBaoNaiNao",
        "otherFood3": "HanBaoYangCong",
        "otherFood4": "HanBaoShengCai",
        "otherFood5": "FangQeiZhi",
        "otherFood6": "HuanGuaPian",
        "otherFood7": "SuanNai",
        "device1": "null",
        "device2": "null",
        "device3": "null ",
        "device4": "null",
        "foodMakeDeviceName1": "null",
        "foodMakeDeviceName2": "null",
        "foodSubMitDeviceName1": "null",
        "foodSubMitDeviceName2": "null",
        "drinkeDeviceName": "null",
        "drinke": "oriange",
        "drinkeDevice": "drinkDevice_2",
        "levelResources": "Restaurant_2",
        "levelGuest": "leveGuest_23",
        "chairCount": 4,
        "unLoackKeyCunnt": 0,
        "levelCionTraget": 0,
        "compeletFoodNumber": 21,
        "goodTarget": 0,
        "continuTarget": 0,
        "gustCount": 15,
        "levelCompeletTime": 0,
        "specialLimitType1": 0,
        "specialLimitType2": 0,
        "specialLimitType3": 0,
        "prizeCionNumber": 0,
        "prizeKeyNumber": 0,
        "recommendUpType": 0,
        "recomenUpdName": "null",
        "toUpGrade": "0",
        "recomendPropType": 0
    },
    {
        "levelID": 39,
        "levelGrade": 24,
        "mainFood1": "ShuPian",
        "mainFood2": "HanBao",
        "mainFood3": " null",
        "otherFood1": "HanBaoBeef",
        "otherFood2": "HanBaoNaiNao",
        "otherFood3": "HanBaoYangCong",
        "otherFood4": "HanBaoShengCai",
        "otherFood5": "FangQeiZhi",
        "otherFood6": "HuanGuaPian",
        "otherFood7": "SuanNai",
        "device1": "null",
        "device2": "null",
        "device3": "null ",
        "device4": "null",
        "foodMakeDeviceName1": "null",
        "foodMakeDeviceName2": "null",
        "foodSubMitDeviceName1": "null",
        "foodSubMitDeviceName2": "null",
        "drinkeDeviceName": "null",
        "drinke": "oriange",
        "drinkeDevice": "drinkDevice_2",
        "levelResources": "Restaurant_2",
        "levelGuest": "leveGuest_24",
        "chairCount": 4,
        "unLoackKeyCunnt": 0,
        "levelCionTraget": 0,
        "compeletFoodNumber": 0,
        "goodTarget": 20,
        "continuTarget": 0,
        "gustCount": 23,
        "levelCompeletTime": 0,
        "specialLimitType1": 0,
        "specialLimitType2": 0,
        "specialLimitType3": 0,
        "prizeCionNumber": 0,
        "prizeKeyNumber": 0,
        "recommendUpType": 0,
        "recomenUpdName": "null",
        "toUpGrade": "0",
        "recomendPropType": 0
    },
    {
        "levelID": 40,
        "levelGrade": 25,
        "mainFood1": "ShuPian",
        "mainFood2": "HanBao",
        "mainFood3": " null",
        "otherFood1": "HanBaoBeef",
        "otherFood2": "HanBaoNaiNao",
        "otherFood3": "HanBaoYangCong",
        "otherFood4": "HanBaoShengCai",
        "otherFood5": "FangQeiZhi",
        "otherFood6": "HuanGuaPian",
        "otherFood7": "SuanNai",
        "device1": "null",
        "device2": "null",
        "device3": "null ",
        "device4": "null",
        "foodMakeDeviceName1": "null",
        "foodMakeDeviceName2": "null",
        "foodSubMitDeviceName1": "null",
        "foodSubMitDeviceName2": "null",
        "drinkeDeviceName": "null",
        "drinke": "oriange",
        "drinkeDevice": "drinkDevice_2",
        "levelResources": "Restaurant_2",
        "levelGuest": "leveGuest_25",
        "chairCount": 4,
        "unLoackKeyCunnt": 0,
        "levelCionTraget": 650,
        "compeletFoodNumber": 0,
        "goodTarget": 21,
        "continuTarget": 0,
        "gustCount": 18,
        "levelCompeletTime": 0,
        "specialLimitType1": 2,
        "specialLimitType2": 0,
        "specialLimitType3": 0,
        "prizeCionNumber": 0,
        "prizeKeyNumber": 0,
        "recommendUpType": 0,
        "recomenUpdName": "null",
        "toUpGrade": "0",
        "recomendPropType": 0
    },
    {
        "levelID": 41,
        "levelGrade": 26,
        "mainFood1": "ShuPian",
        "mainFood2": "HanBao",
        "mainFood3": " null",
        "otherFood1": "HanBaoBeef",
        "otherFood2": "HanBaoNaiNao",
        "otherFood3": "HanBaoYangCong",
        "otherFood4": "HanBaoShengCai",
        "otherFood5": "FangQeiZhi",
        "otherFood6": "HuanGuaPian",
        "otherFood7": "SuanNai",
        "device1": "null",
        "device2": "null",
        "device3": "null ",
        "device4": "null",
        "foodMakeDeviceName1": "null",
        "foodMakeDeviceName2": "null",
        "foodSubMitDeviceName1": "null",
        "foodSubMitDeviceName2": "null",
        "drinkeDeviceName": "null",
        "drinke": "oriange",
        "drinkeDevice": "drinkDevice_2",
        "levelResources": "Restaurant_2",
        "levelGuest": "leveGuest_26",
        "chairCount": 4,
        "unLoackKeyCunnt": 0,
        "levelCionTraget": 700,
        "compeletFoodNumber": 0,
        "goodTarget": 21,
        "continuTarget": 0,
        "gustCount": 0,
        "levelCompeletTime": 65,
        "specialLimitType1": 0,
        "specialLimitType2": 0,
        "specialLimitType3": 0,
        "prizeCionNumber": 0,
        "prizeKeyNumber": 0,
        "recommendUpType": 0,
        "recomenUpdName": "null",
        "toUpGrade": "0",
        "recomendPropType": 0
    },
    {
        "levelID": 42,
        "levelGrade": 27,
        "mainFood1": "ShuPian",
        "mainFood2": "HanBao",
        "mainFood3": " null",
        "otherFood1": "HanBaoBeef",
        "otherFood2": "HanBaoNaiNao",
        "otherFood3": "HanBaoYangCong",
        "otherFood4": "HanBaoShengCai",
        "otherFood5": "FangQeiZhi",
        "otherFood6": "HuanGuaPian",
        "otherFood7": "SuanNai",
        "device1": "null",
        "device2": "null",
        "device3": "null ",
        "device4": "null",
        "foodMakeDeviceName1": "null",
        "foodMakeDeviceName2": "null",
        "foodSubMitDeviceName1": "null",
        "foodSubMitDeviceName2": "null",
        "drinkeDeviceName": "null",
        "drinke": "oriange",
        "drinkeDevice": "drinkDevice_2",
        "levelResources": "Restaurant_2",
        "levelGuest": "leveGuest_27",
        "chairCount": 4,
        "unLoackKeyCunnt": 0,
        "levelCionTraget": 0,
        "compeletFoodNumber": 0,
        "goodTarget": 20,
        "continuTarget": 0,
        "gustCount": 23,
        "levelCompeletTime": 0,
        "specialLimitType1": 0,
        "specialLimitType2": 0,
        "specialLimitType3": 0,
        "prizeCionNumber": 0,
        "prizeKeyNumber": 0,
        "recommendUpType": 0,
        "recomenUpdName": "null",
        "toUpGrade": "0",
        "recomendPropType": 0
    },
    {
        "levelID": 43,
        "levelGrade": 28,
        "mainFood1": "ShuPian",
        "mainFood2": "HanBao",
        "mainFood3": " null",
        "otherFood1": "HanBaoBeef",
        "otherFood2": "HanBaoNaiNao",
        "otherFood3": "HanBaoYangCong",
        "otherFood4": "HanBaoShengCai",
        "otherFood5": "FangQeiZhi",
        "otherFood6": "HuanGuaPian",
        "otherFood7": "SuanNai",
        "device1": "null",
        "device2": "null",
        "device3": "null ",
        "device4": "null",
        "foodMakeDeviceName1": "null",
        "foodMakeDeviceName2": "null",
        "foodSubMitDeviceName1": "null",
        "foodSubMitDeviceName2": "null",
        "drinkeDeviceName": "null",
        "drinke": "oriange",
        "drinkeDevice": "drinkDevice_2",
        "levelResources": "Restaurant_2",
        "levelGuest": "leveGuest_28",
        "chairCount": 4,
        "unLoackKeyCunnt": 0,
        "levelCionTraget": 0,
        "compeletFoodNumber": 30,
        "goodTarget": 0,
        "continuTarget": 0,
        "gustCount": 22,
        "levelCompeletTime": 0,
        "specialLimitType1": 0,
        "specialLimitType2": 0,
        "specialLimitType3": 0,
        "prizeCionNumber": 0,
        "prizeKeyNumber": 0,
        "recommendUpType": 0,
        "recomenUpdName": "null",
        "toUpGrade": "0",
        "recomendPropType": 0
    },
    {
        "levelID": 44,
        "levelGrade": 29,
        "mainFood1": "ShuPian",
        "mainFood2": "HanBao",
        "mainFood3": " null",
        "otherFood1": "HanBaoBeef",
        "otherFood2": "HanBaoNaiNao",
        "otherFood3": "HanBaoYangCong",
        "otherFood4": "HanBaoShengCai",
        "otherFood5": "FangQeiZhi",
        "otherFood6": "HuanGuaPian",
        "otherFood7": "SuanNai",
        "device1": "null",
        "device2": "null",
        "device3": "null ",
        "device4": "null",
        "foodMakeDeviceName1": "null",
        "foodMakeDeviceName2": "null",
        "foodSubMitDeviceName1": "null",
        "foodSubMitDeviceName2": "null",
        "drinkeDeviceName": "null",
        "drinke": "oriange",
        "drinkeDevice": "drinkDevice_2",
        "levelResources": "Restaurant_2",
        "levelGuest": "leveGuest_29",
        "chairCount": 4,
        "unLoackKeyCunnt": 0,
        "levelCionTraget": 0,
        "compeletFoodNumber": 0,
        "goodTarget": 22,
        "continuTarget": 0,
        "gustCount": 24,
        "levelCompeletTime": 0,
        "specialLimitType1": 0,
        "specialLimitType2": 0,
        "specialLimitType3": 0,
        "prizeCionNumber": 0,
        "prizeKeyNumber": 0,
        "recommendUpType": 0,
        "recomenUpdName": "null",
        "toUpGrade": "0",
        "recomendPropType": 0
    },
    {
        "levelID": 45,
        "levelGrade": 30,
        "mainFood1": "ShuPian",
        "mainFood2": "HanBao",
        "mainFood3": " null",
        "otherFood1": "HanBaoBeef",
        "otherFood2": "HanBaoNaiNao",
        "otherFood3": "HanBaoYangCong",
        "otherFood4": "HanBaoShengCai",
        "otherFood5": "FangQeiZhi",
        "otherFood6": "HuanGuaPian",
        "otherFood7": "SuanNai",
        "device1": "null",
        "device2": "null",
        "device3": "null ",
        "device4": "null",
        "foodMakeDeviceName1": "null",
        "foodMakeDeviceName2": "null",
        "foodSubMitDeviceName1": "null",
        "foodSubMitDeviceName2": "null",
        "drinkeDeviceName": "null",
        "drinke": "oriange",
        "drinkeDevice": "drinkDevice_2",
        "levelResources": "Restaurant_2",
        "levelGuest": "leveGuest_30",
        "chairCount": 4,
        "unLoackKeyCunnt": 0,
        "levelCionTraget": 900,
        "compeletFoodNumber": 0,
        "goodTarget": 0,
        "continuTarget": 0,
        "gustCount": 0,
        "levelCompeletTime": 75,
        "specialLimitType1": 2,
        "specialLimitType2": 0,
        "specialLimitType3": 0,
        "prizeCionNumber": 0,
        "prizeKeyNumber": 0,
        "recommendUpType": 0,
        "recomenUpdName": "null",
        "toUpGrade": "0",
        "recomendPropType": 0
    }
]