[
    {
        "levelID": 1,
        "levelGrade": 1,
        "mainFood1": "steak",
        "mainFood2": "null",
        "mainFood3": " null",
        "otherFood1": "null",
        "otherFood2": "null",
        "otherFood3": "null",
        "otherFood4": "null",
        "otherFood5": "null",
        "otherFood6": "null",
        "otherFood7": "null",
        "device1": "pan_1",
        "device2": "plate_1",
        "device3": "drinkDevice_1",
        "device4": "null",
        "foodMakeDeviceName1": "pan_1",
        "foodMakeDeviceName2": "null",
        "foodSubMitDeviceName1": "plate_1",
        "foodSubMitDeviceName2": "null",
        "drinkeDeviceName": "drinkDevice_1",
        "drinke": "null",
        "drinkeDevice": "null",
        "levelResources": "Restaurant_1",
        "levelGuest": "leveGuest_1",
        "chairCount": 3,
        "unLoackKeyCunnt": 0,
        "levelCionTraget": 30,
        "compeletFoodNumber": 0,
        "goodTarget": 0,
        "continuTarget": 0,
        "gustCount": 5,
        "levelCompeletTime": 0,
        "specialLimitType1": 1,
        "specialLimitType2": 0,
        "specialLimitType3": 0,
        "prizeCionNumber": 0,
        "prizeKeyNumber": 0,
        "recommendUpType": 0,
        "recomenUpdName": "null",
        "toUpGrade": "0",
        "recomendPropType": 0
    },
    {
        "levelID": 2,
        "levelGrade": 2,
        "mainFood1": "steak",
        "mainFood2": " null",
        "mainFood3": " null",
        "otherFood1": "null",
        "otherFood2": "null",
        "otherFood3": "null",
        "otherFood4": "null",
        "otherFood5": "null",
        "otherFood6": "null",
        "otherFood7": "null",
        "foodMakeDeviceName1": "pan_1",
        "foodMakeDeviceName2": "null",
        "foodSubMitDeviceName1": "plate_1",
        "foodSubMitDeviceName2": "null",
        "drinkeDeviceName": "drinkDevice_1",
        "device1": "null ",
        "device2": "null ",
        "device3": "null ",
        "device4": "null ",
        "drinke": "cola",
        "drinkeDevice": "drinkDevice_1",
        "levelResources": "Restaurant_1",
        "levelGuest": "leveGuest_2",
        "chairCount": 1,
        "unLoackKeyCunnt": 1,
        "levelCionTraget": 45,
        "compeletFoodNumber": 0,
        "goodTarget": 0,
        "continuTarget": 0,
        "gustCount": 8,
        "levelCompeletTime": 0,
        "specialLimitType1": 0,
        "specialLimitType2": 0,
        "specialLimitType3": 0,
        "prizeCionNumber": 13,
        "prizeKeyNumber": 0,
        "recommendUpType": 0,
        "recomenUpdName": "null",
        "toUpGrade": "0",
        "recomendPropType": 0
    },
    {
        "levelID": 3,
        "levelGrade": 3,
        "mainFood1": "steak",
        "mainFood2": "null",
        "mainFood3": " null",
        "otherFood1": "XiHongShi",
        "otherFood2": "null",
        "otherFood3": "null",
        "otherFood4": "null",
        "otherFood5": "null",
        "otherFood6": "null",
        "otherFood7": "null",
        "foodMakeDeviceName1": "pan_1",
        "foodMakeDeviceName2": "null",
        "foodSubMitDeviceName1": "plate_1",
        "foodSubMitDeviceName2": "null",
        "drinkeDeviceName": "drinkDevice_1",
        "device1": "null ",
        "device2": "null ",
        "device3": "null ",
        "device4": "null ",
        "drinke": "cola",
        "drinkeDevice": "drinkDevice_1",
        "levelResources": "Restaurant_1",
        "levelGuest": "leveGuest_3",
        "chairCount": 2,
        "unLoackKeyCunnt": 2,
        "levelCionTraget": 0,
        "compeletFoodNumber": 12,
        "goodTarget": 0,
        "continuTarget": 0,
        "gustCount": 8,
        "levelCompeletTime": 0,
        "specialLimitType1": 0,
        "specialLimitType2": 0,
        "specialLimitType3": 0,
        "prizeCionNumber": 15,
        "prizeKeyNumber": 0,
        "recommendUpType": 0,
        "recomenUpdName": "null",
        "toUpGrade": "0",
        "recomendPropType": 0
    },
    {
        "levelID": 4,
        "levelGrade": 4,
        "mainFood1": "steak",
        "mainFood2": "null",
        "mainFood3": " null",
        "otherFood1": "XiHongShi",
        "otherFood2": "null",
        "otherFood3": "null",
        "otherFood4": "null",
        "otherFood5": "null",
        "otherFood6": "null",
        "otherFood7": "null",
        "foodMakeDeviceName1": "pan_1",
        "foodMakeDeviceName2": "null",
        "foodSubMitDeviceName1": "plate_1",
        "foodSubMitDeviceName2": "null",
        "drinkeDeviceName": "drinkDevice_1",
        "device1": "null ",
        "device2": "null ",
        "device3": "null ",
        "device4": "null ",
        "drinke": "cola",
        "drinkeDevice": "drinkDevice_1",
        "levelResources": "Restaurant_1",
        "levelGuest": "leveGuest_4",
        "chairCount": 2,
        "unLoackKeyCunnt": 3,
        "levelCionTraget": 100,
        "compeletFoodNumber": 0,
        "goodTarget": 0,
        "continuTarget": 0,
        "gustCount": 10,
        "levelCompeletTime": 0,
        "specialLimitType1": 0,
        "specialLimitType2": 0,
        "specialLimitType3": 0,
        "prizeCionNumber": 13,
        "prizeKeyNumber": 0,
        "recommendUpType": 0,
        "recomenUpdName": "null",
        "toUpGrade": "0",
        "recomendPropType": 0
    },
    {
        "levelID": 5,
        "levelGrade": 5,
        "mainFood1": "steak",
        "mainFood2": "null",
        "mainFood3": " null",
        "otherFood1": "shengcai",
        "otherFood2": "XiHongShi",
        "otherFood3": "null",
        "otherFood4": "null",
        "otherFood5": "null",
        "otherFood6": "null",
        "otherFood7": "null",
        "foodMakeDeviceName1": "pan_1",
        "foodMakeDeviceName2": "null",
        "foodSubMitDeviceName1": "plate_1",
        "foodSubMitDeviceName2": "null",
        "drinkeDeviceName": "drinkDevice_1",
        "device1": "null ",
        "device2": "null ",
        "device3": "null ",
        "device4": "null ",
        "drinke": "cola",
        "drinkeDevice": "drinkDevice_1",
        "levelResources": "Restaurant_1",
        "levelGuest": "leveGuest_5",
        "chairCount": 4,
        "unLoackKeyCunnt": 4,
        "levelCionTraget": 120,
        "compeletFoodNumber": 0,
        "goodTarget": 0,
        "continuTarget": 0,
        "gustCount": 12,
        "levelCompeletTime": 120,
        "specialLimitType1": 0,
        "specialLimitType2": 0,
        "specialLimitType3": 0,
        "prizeCionNumber": 15,
        "prizeKeyNumber": 0,
        "recommendUpType": 0,
        "recomenUpdName": "null",
        "toUpGrade": "0",
        "recomendPropType": 0
    },
    {
        "levelID": 6,
        "levelGrade": 6,
        "mainFood1": "steak",
        "mainFood2": "null",
        "mainFood3": " null",
        "otherFood1": "shengcai",
        "otherFood2": "XiHongShi",
        "otherFood3": "null",
        "otherFood4": "null",
        "otherFood5": "null",
        "otherFood6": "null",
        "otherFood7": "null",
        "foodMakeDeviceName1": "pan_1",
        "foodMakeDeviceName2": "null",
        "foodSubMitDeviceName1": "plate_1",
        "foodSubMitDeviceName2": "null",
        "drinkeDeviceName": "drinkDevice_1",
        "device1": "null ",
        "device2": "null ",
        "device3": "null ",
        "device4": "null ",
        "drinke": "cola",
        "drinkeDevice": "drinkDevice_1",
        "levelResources": "Restaurant_1",
        "levelGuest": "leveGuest_6",
        "chairCount": 4,
        "unLoackKeyCunnt": 5,
        "levelCionTraget": 0,
        "compeletFoodNumber": 20,
        "goodTarget": 0,
        "continuTarget": 0,
        "gustCount": 10,
        "levelCompeletTime": 0,
        "specialLimitType1": 0,
        "specialLimitType2": 0,
        "specialLimitType3": 0,
        "prizeCionNumber": 16,
        "prizeKeyNumber": 0,
        "recommendUpType": 0,
        "recomenUpdName": "null",
        "toUpGrade": "0",
        "recomendPropType": 0
    },
    {
        "levelID": 7,
        "levelGrade": 7,
        "mainFood1": "steak",
        "mainFood2": "null",
        "mainFood3": " null",
        "otherFood1": "shengcai",
        "otherFood2": "XiHongShi",
        "otherFood3": "FanGQieJian",
        "otherFood4": "null",
        "otherFood5": "null",
        "otherFood6": "null",
        "otherFood7": "null",
        "foodMakeDeviceName1": "pan_1",
        "foodMakeDeviceName2": "null",
        "foodSubMitDeviceName1": "plate_1",
        "foodSubMitDeviceName2": "null",
        "drinkeDeviceName": "drinkDevice_1",
        "device1": "null ",
        "device2": "null ",
        "device3": "null ",
        "device4": "null ",
        "drinke": "cola",
        "drinkeDevice": "drinkDevice_1",
        "levelResources": "Restaurant_1",
        "levelGuest": "leveGuest_7",
        "chairCount": 4,
        "unLoackKeyCunnt": 6,
        "levelCionTraget": 0,
        "compeletFoodNumber": 0,
        "goodTarget": 10,
        "continuTarget": 0,
        "gustCount": 10,
        "levelCompeletTime": 0,
        "specialLimitType1": 0,
        "specialLimitType2": 0,
        "specialLimitType3": 0,
        "prizeCionNumber": 12,
        "prizeKeyNumber": 0,
        "recommendUpType": 0,
        "recomenUpdName": "null",
        "toUpGrade": "0",
        "recomendPropType": 0
    },
    {
        "levelID": 8,
        "levelGrade": 8,
        "mainFood1": "steak",
        "mainFood2": "null",
        "mainFood3": " null",
        "otherFood1": "shengcai",
        "otherFood2": "XiHongShi",
        "otherFood3": "FanGQieJian",
        "otherFood4": "TianCuJian",
        "otherFood5": "null",
        "otherFood6": "null",
        "otherFood7": "null",
        "foodMakeDeviceName1": "pan_1",
        "foodMakeDeviceName2": "null",
        "foodSubMitDeviceName1": "plate_1",
        "foodSubMitDeviceName2": "null",
        "drinkeDeviceName": "drinkDevice_1",
        "device1": "null ",
        "device2": "null ",
        "device3": "null ",
        "device4": "null ",
        "drinke": "cola",
        "drinkeDevice": "drinkDevice_1",
        "levelResources": "Restaurant_1",
        "levelGuest": "leveGuest_8",
        "chairCount": 4,
        "unLoackKeyCunnt": 7,
        "levelCionTraget": 0,
        "compeletFoodNumber": 35,
        "goodTarget": 0,
        "continuTarget": 0,
        "gustCount": 15,
        "levelCompeletTime": 0,
        "specialLimitType1": 0,
        "specialLimitType2": 0,
        "specialLimitType3": 0,
        "prizeCionNumber": 12,
        "prizeKeyNumber": 0,
        "recommendUpType": 0,
        "recomenUpdName": "null",
        "toUpGrade": "0",
        "recomendPropType": 0
    },
    {
        "levelID": 9,
        "levelGrade": 9,
        "mainFood1": "steak",
        "mainFood2": "null",
        "mainFood3": " null",
        "otherFood1": "shengcai",
        "otherFood2": "XiHongShi",
        "otherFood3": "FanGQieJian",
        "otherFood4": "TianCuJian",
        "otherFood5": "null",
        "otherFood6": "null",
        "otherFood7": "null",
        "foodMakeDeviceName1": "pan_1",
        "foodMakeDeviceName2": "null",
        "foodSubMitDeviceName1": "plate_1",
        "foodSubMitDeviceName2": "null",
        "drinkeDeviceName": "drinkDevice_1",
        "device1": "null ",
        "device2": "null ",
        "device3": "null ",
        "device4": "null ",
        "drinke": "cola",
        "drinkeDevice": "drinkDevice_1",
        "levelResources": "Restaurant_1",
        "levelGuest": "leveGuest_9",
        "chairCount": 4,
        "unLoackKeyCunnt": 8,
        "levelCionTraget": 0,
        "compeletFoodNumber": 35,
        "goodTarget": 0,
        "continuTarget": 0,
        "gustCount": 15,
        "levelCompeletTime": 0,
        "specialLimitType1": 0,
        "specialLimitType2": 0,
        "specialLimitType3": 0,
        "prizeCionNumber": 10,
        "prizeKeyNumber": 0,
        "recommendUpType": 0,
        "recomenUpdName": "null",
        "toUpGrade": "0",
        "recomendPropType": 0
    },
    {
        "levelID": 10,
        "levelGrade": 10,
        "mainFood1": "steak",
        "mainFood2": "null",
        "mainFood3": " null",
        "otherFood1": "shengcai",
        "otherFood2": "XiHongShi",
        "otherFood3": "FanGQieJian",
        "otherFood4": "TianCuJian",
        "otherFood5": "null",
        "otherFood6": "null",
        "otherFood7": "null",
        "foodMakeDeviceName1": "pan_1",
        "foodMakeDeviceName2": "null",
        "foodSubMitDeviceName1": "plate_1",
        "foodSubMitDeviceName2": "null",
        "drinkeDeviceName": "drinkDevice_1",
        "device1": "null ",
        "device2": "null ",
        "device3": "null ",
        "device4": "null ",
        "drinke": "cola",
        "drinkeDevice": "drinkDevice_1",
        "levelResources": "Restaurant_1",
        "levelGuest": "leveGuest_10",
        "chairCount": 4,
        "unLoackKeyCunnt": 9,
        "levelCionTraget": 350,
        "compeletFoodNumber": 0,
        "goodTarget": 0,
        "continuTarget": 0,
        "gustCount": 12,
        "levelCompeletTime": 0,
        "specialLimitType1": 0,
        "specialLimitType2": 0,
        "specialLimitType3": 0,
        "prizeCionNumber": 12,
        "prizeKeyNumber": 0,
        "recommendUpType": 0,
        "recomenUpdName": "null",
        "toUpGrade": "0",
        "recomendPropType": 0
    },
    {
        "levelID": 11,
        "levelGrade": 11,
        "mainFood1": "steak",
        "mainFood2": "null",
        "mainFood3": " null",
        "otherFood1": "shengcai",
        "otherFood2": "XiHongShi",
        "otherFood3": "FanGQieJian",
        "otherFood4": "TianCuJian",
        "otherFood5": "null",
        "otherFood6": "null",
        "otherFood7": "null",
        "foodMakeDeviceName1": "pan_1",
        "foodMakeDeviceName2": "null",
        "foodSubMitDeviceName1": "plate_1",
        "foodSubMitDeviceName2": "null",
        "drinkeDeviceName": "drinkDevice_1",
        "device1": "null ",
        "device2": "null ",
        "device3": "null ",
        "device4": "null ",
        "drinke": "cola",
        "drinkeDevice": "drinkDevice_1",
        "levelResources": "Restaurant_1",
        "levelGuest": "leveGuest_11",
        "chairCount": 4,
        "unLoackKeyCunnt": 10,
        "levelCionTraget": 400,
        "compeletFoodNumber": 0,
        "goodTarget": 0,
        "continuTarget": 0,
        "gustCount": 13,
        "levelCompeletTime": 0,
        "specialLimitType1": 0,
        "specialLimitType2": 0,
        "specialLimitType3": 0,
        "prizeCionNumber": 12,
        "prizeKeyNumber": 0,
        "recommendUpType": 0,
        "recomenUpdName": "null",
        "toUpGrade": "0",
        "recomendPropType": 0
    },
    {
        "levelID": 12,
        "levelGrade": 12,
        "mainFood1": "steak",
        "mainFood2": "null",
        "mainFood3": " null",
        "otherFood1": "shengcai",
        "otherFood2": "XiHongShi",
        "otherFood3": "FanGQieJian",
        "otherFood4": "TianCuJian",
        "otherFood5": "null",
        "otherFood6": "null",
        "otherFood7": "null",
        "foodMakeDeviceName1": "pan_1",
        "foodMakeDeviceName2": "null",
        "foodSubMitDeviceName1": "plate_1",
        "foodSubMitDeviceName2": "null",
        "drinkeDeviceName": "drinkDevice_1",
        "device1": "null ",
        "device2": "null ",
        "device3": "null ",
        "device4": "null ",
        "drinke": "cola",
        "drinkeDevice": "drinkDevice_1",
        "levelResources": "Restaurant_1",
        "levelGuest": "leveGuest_12",
        "chairCount": 4,
        "unLoackKeyCunnt": 11,
        "levelCionTraget": 0,
        "compeletFoodNumber": 30,
        "goodTarget": 0,
        "continuTarget": 0,
        "gustCount": 12,
        "levelCompeletTime": 0,
        "specialLimitType1": 0,
        "specialLimitType2": 0,
        "specialLimitType3": 0,
        "prizeCionNumber": 12,
        "prizeKeyNumber": 0,
        "recommendUpType": 0,
        "recomenUpdName": "null",
        "toUpGrade": "0",
        "recomendPropType": 0
    },
    {
        "levelID": 13,
        "levelGrade": 13,
        "mainFood1": "steak",
        "mainFood2": "null",
        "mainFood3": " null",
        "otherFood1": "shengcai",
        "otherFood2": "XiHongShi",
        "otherFood3": "FanGQieJian",
        "otherFood4": "TianCuJian",
        "otherFood5": "null",
        "otherFood6": "null",
        "otherFood7": "null",
        "foodMakeDeviceName1": "pan_1",
        "foodMakeDeviceName2": "null",
        "foodSubMitDeviceName1": "plate_1",
        "foodSubMitDeviceName2": "null",
        "drinkeDeviceName": "drinkDevice_1",
        "device1": "null ",
        "device2": "null ",
        "device3": "null ",
        "device4": "null ",
        "drinke": "cola",
        "drinkeDevice": "drinkDevice_1",
        "levelResources": "Restaurant_1",
        "levelGuest": "leveGuest_13",
        "chairCount": 4,
        "unLoackKeyCunnt": 12,
        "levelCionTraget": 0,
        "compeletFoodNumber": 40,
        "goodTarget": 0,
        "continuTarget": 0,
        "gustCount": 15,
        "levelCompeletTime": 0,
        "specialLimitType1": 0,
        "specialLimitType2": 0,
        "specialLimitType3": 0,
        "prizeCionNumber": 12,
        "prizeKeyNumber": 0,
        "recommendUpType": 0,
        "recomenUpdName": "null",
        "toUpGrade": "0",
        "recomendPropType": 0
    },
    {
        "levelID": 14,
        "levelGrade": 14,
        "mainFood1": "steak",
        "mainFood2": "null",
        "mainFood3": " null",
        "otherFood1": "shengcai",
        "otherFood2": "XiHongShi",
        "otherFood3": "FanGQieJian",
        "otherFood4": "TianCuJian",
        "otherFood5": "null",
        "otherFood6": "null",
        "otherFood7": "null",
        "foodMakeDeviceName1": "pan_1",
        "foodMakeDeviceName2": "null",
        "foodSubMitDeviceName1": "plate_1",
        "foodSubMitDeviceName2": "null",
        "drinkeDeviceName": "drinkDevice_1",
        "device1": "null ",
        "device2": "null ",
        "device3": "null ",
        "device4": "null ",
        "drinke": "cola",
        "drinkeDevice": "drinkDevice_1",
        "levelResources": "Restaurant_1",
        "levelGuest": "leveGuest_14",
        "chairCount": 4,
        "unLoackKeyCunnt": 13,
        "levelCionTraget": 0,
        "compeletFoodNumber": 30,
        "goodTarget": 0,
        "continuTarget": 0,
        "gustCount": 12,
        "levelCompeletTime": 0,
        "specialLimitType1": 0,
        "specialLimitType2": 0,
        "specialLimitType3": 0,
        "prizeCionNumber": 12,
        "prizeKeyNumber": 0,
        "recommendUpType": 0,
        "recomenUpdName": "null",
        "toUpGrade": "0",
        "recomendPropType": 0
    },
    {
        "levelID": 15,
        "levelGrade": 15,
        "mainFood1": "steak",
        "mainFood2": "null",
        "mainFood3": " null",
        "otherFood1": "shengcai",
        "otherFood2": "XiHongShi",
        "otherFood3": "FanGQieJian",
        "otherFood4": "TianCuJian",
        "otherFood5": "null",
        "otherFood6": "null",
        "otherFood7": "null",
        "foodMakeDeviceName1": "pan_1",
        "foodMakeDeviceName2": "null",
        "foodSubMitDeviceName1": "plate_1",
        "foodSubMitDeviceName2": "null",
        "drinkeDeviceName": "drinkDevice_1",
        "device1": "null ",
        "device2": "null ",
        "device3": "null ",
        "device4": "null ",
        "drinke": "cola",
        "drinkeDevice": "drinkDevice_1",
        "levelResources": "Restaurant_1",
        "levelGuest": "leveGuest_15",
        "chairCount": 4,
        "unLoackKeyCunnt": 14,
        "levelCionTraget": 550,
        "compeletFoodNumber": 0,
        "goodTarget": 0,
        "continuTarget": 0,
        "gustCount": 15,
        "levelCompeletTime": 0,
        "specialLimitType1": 0,
        "specialLimitType2": 0,
        "specialLimitType3": 0,
        "prizeCionNumber": 12,
        "prizeKeyNumber": 0,
        "recommendUpType": 0,
        "recomenUpdName": "null",
        "toUpGrade": "0",
        "recomendPropType": 0
    }
]